%YAML 1.1
%TAG !u! tag:unity3d.com,2011:
--- !u!1045 &1
EditorBuildSettings:
  m_ObjectHideFlags: 0
  serializedVersion: 2
  m_Scenes:
  - enabled: 0
    path: 
    guid: 00000000000000000000000000000000
  - enabled: 1
    path: Assets/Scenes/Bosque.unity
    guid: fec61e1c108ebd049a739a2670472412
  - enabled: 1
    path: Assets/Scenes/Cueva.unity
    guid: fab81076fb3d8994ab2d7b4b6be3d5ce
  - enabled: 1
    path: Assets/Scenes/Deset.unity
    guid: 0373ae3a0ebec274e9e5d519ffb78f5f
  - enabled: 1
    path: Assets/Scenes/menu.unity
    guid: 5635b44435538e1408b6f5bbfd239560
  - enabled: 1
    path: Assets/Scenes/MainMenu.unity
    guid: 4fe0e9a1cc930d74586460273c5ab9b5
  - enabled: 1
    path: Assets/Scenes/Nieve.unity
    guid: d1bef1f34f354b04682abd716ff32571
  - enabled: 1
    path: Assets/Scenes/Moriste.unity
    guid: 93f3c410859871742bdda2419e3da14f
  m_configObjects: {}
